{
  "data": [
    { "id": 659, "name": "1050 Ti" },
    { "id": 634, "name": "3d" },
    { "id": 481, "name": "4c" },
    { "id": 658, "name": "5050" },
    { "id": 486, "name": ":2023-naturecredits" },
    { "id": 480, "name": ":2024-nbs-risk" },
    { "id": 449, "name": ":4c" },
    { "id": 430, "name": ":ce" },
    { "id": 448, "name": ":life" },
    { "id": 483, "name": ":plancomp" },
    { "id": 472, "name": ":rsn" },
    { "id": 133, "name": "AI" },
    { "id": 154, "name": "ARM" },
    { "id": 202, "name": "ASP.NET" },
    { "id": 173, "name": "Alpine" },
    { "id": 144, "name": "Apex" },
    { "id": 179, "name": "Architecture" },
    { "id": 199, "name": "Azure" },
    { "id": 143, "name": "Barcelona" },
    { "id": 142, "name": "Bath" }
  ],
  "page": 1,
  "per_page": 20,
  "total": 659,
  "total_pages": 33
}
